\beamer@endinputifotherversion {3.24pt}
\select@language {english}
\beamer@sectionintoc {1}{Introduction}{2}{0}{1}
\beamer@sectionintoc {2}{Overlays}{10}{0}{2}
\beamer@sectionintoc {3}{Math\tmspace -\thinmuskip {.1667em}}{23}{0}{3}
\beamer@sectionintoc {4}{Conclusions}{31}{0}{4}
