\relax 
\providecommand\hyper@newdestlabel[2]{}
\providecommand\HyperFirstAtBeginDocument{\AtBeginDocument}
\HyperFirstAtBeginDocument{\ifx\hyper@anchor\@undefined
\global\let\oldcontentsline\contentsline
\gdef\contentsline#1#2#3#4{\oldcontentsline{#1}{#2}{#3}}
\global\let\oldnewlabel\newlabel
\gdef\newlabel#1#2{\newlabelxx{#1}#2}
\gdef\newlabelxx#1#2#3#4#5#6{\oldnewlabel{#1}{{#2}{#3}}}
\AtEndDocument{\ifx\hyper@anchor\@undefined
\let\contentsline\oldcontentsline
\let\newlabel\oldnewlabel
\fi}
\fi}
\global\let\hyper@last\relax 
\gdef\HyperFirstAtBeginDocument#1{#1}
\providecommand\HyField@AuxAddToFields[1]{}
\providecommand\HyField@AuxAddToCoFields[2]{}
\@writefile{toc}{\beamer@endinputifotherversion {3.24pt}}
\@writefile{nav}{\beamer@endinputifotherversion {3.24pt}}
\select@language{english}
\@writefile{toc}{\select@language{english}}
\@writefile{lof}{\select@language{english}}
\@writefile{lot}{\select@language{english}}
\@writefile{nav}{\headcommand {\slideentry {0}{0}{1}{1/1}{}{0}}}
\@writefile{nav}{\headcommand {\beamer@framepages {1}{1}}}
\@writefile{toc}{\beamer@sectionintoc {1}{Introduction}{2}{0}{1}}
\@writefile{nav}{\headcommand {\sectionentry {1}{Introduction}{2}{Introduction}{0}}}
\@writefile{nav}{\headcommand {\beamer@sectionpages {1}{1}}}
\@writefile{nav}{\headcommand {\beamer@subsectionpages {1}{1}}}
\@writefile{nav}{\headcommand {\slideentry {1}{0}{2}{2/2}{}{0}}}
\@writefile{nav}{\headcommand {\beamer@framepages {2}{2}}}
\@writefile{nav}{\headcommand {\slideentry {1}{0}{3}{3/6}{}{0}}}
\@writefile{nav}{\headcommand {\beamer@framepages {3}{6}}}
\@writefile{nav}{\headcommand {\slideentry {1}{0}{4}{7/7}{}{0}}}
\@writefile{nav}{\headcommand {\beamer@framepages {7}{7}}}
\@writefile{nav}{\headcommand {\slideentry {1}{0}{5}{8/8}{}{0}}}
\@writefile{nav}{\headcommand {\beamer@framepages {8}{8}}}
\@writefile{nav}{\headcommand {\slideentry {1}{0}{6}{9/9}{}{0}}}
\@writefile{nav}{\headcommand {\beamer@framepages {9}{9}}}
\@writefile{toc}{\beamer@sectionintoc {2}{Overlays}{10}{0}{2}}
\@writefile{nav}{\headcommand {\sectionentry {2}{Overlays}{10}{Overlays}{0}}}
\@writefile{nav}{\headcommand {\beamer@sectionpages {2}{9}}}
\@writefile{nav}{\headcommand {\beamer@subsectionpages {2}{9}}}
\@writefile{nav}{\headcommand {\slideentry {2}{0}{7}{10/10}{}{0}}}
\@writefile{nav}{\headcommand {\beamer@framepages {10}{10}}}
\@writefile{nav}{\headcommand {\slideentry {2}{0}{8}{11/15}{}{0}}}
\@writefile{nav}{\headcommand {\beamer@framepages {11}{15}}}
\@writefile{nav}{\headcommand {\slideentry {2}{0}{9}{16/16}{}{0}}}
\@writefile{nav}{\headcommand {\beamer@framepages {16}{16}}}
\@writefile{nav}{\headcommand {\slideentry {2}{0}{10}{17/17}{}{0}}}
\@writefile{nav}{\headcommand {\beamer@framepages {17}{17}}}
\@writefile{nav}{\headcommand {\slideentry {2}{0}{11}{18/22}{}{0}}}
\@writefile{nav}{\headcommand {\beamer@framepages {18}{22}}}
\@writefile{toc}{\beamer@sectionintoc {3}{Math\tmspace  -\thinmuskip {.1667em}}{23}{0}{3}}
\@writefile{nav}{\headcommand {\sectionentry {3}{Math\tmspace  -\thinmuskip {.1667em}}{23}{Math\tmspace  -\thinmuskip {.1667em}}{0}}}
\@writefile{nav}{\headcommand {\beamer@sectionpages {10}{22}}}
\@writefile{nav}{\headcommand {\beamer@subsectionpages {10}{22}}}
\@writefile{nav}{\headcommand {\slideentry {3}{0}{12}{23/23}{}{0}}}
\@writefile{nav}{\headcommand {\beamer@framepages {23}{23}}}
\@writefile{nav}{\headcommand {\slideentry {3}{0}{13}{24/25}{}{0}}}
\@writefile{nav}{\headcommand {\beamer@framepages {24}{25}}}
\@writefile{nav}{\headcommand {\slideentry {3}{0}{14}{26/28}{}{0}}}
\@writefile{nav}{\headcommand {\beamer@framepages {26}{28}}}
\@writefile{nav}{\headcommand {\slideentry {3}{0}{15}{29/29}{}{0}}}
\@writefile{nav}{\headcommand {\beamer@framepages {29}{29}}}
\@writefile{nav}{\headcommand {\slideentry {3}{0}{16}{30/30}{}{0}}}
\@writefile{nav}{\headcommand {\beamer@framepages {30}{30}}}
\@writefile{toc}{\beamer@sectionintoc {4}{Conclusions}{31}{0}{4}}
\@writefile{nav}{\headcommand {\sectionentry {4}{Conclusions}{31}{Conclusions}{0}}}
\@writefile{nav}{\headcommand {\beamer@sectionpages {23}{30}}}
\@writefile{nav}{\headcommand {\beamer@subsectionpages {23}{30}}}
\@writefile{nav}{\headcommand {\slideentry {4}{0}{17}{31/31}{}{0}}}
\@writefile{nav}{\headcommand {\beamer@framepages {31}{31}}}
\@writefile{nav}{\headcommand {\slideentry {4}{0}{18}{32/32}{}{0}}}
\@writefile{nav}{\headcommand {\beamer@framepages {32}{32}}}
\@writefile{nav}{\headcommand {\slideentry {4}{0}{19}{33/33}{}{0}}}
\@writefile{nav}{\headcommand {\beamer@framepages {33}{33}}}
\@writefile{nav}{\headcommand {\beamer@partpages {1}{33}}}
\@writefile{nav}{\headcommand {\beamer@subsectionpages {31}{33}}}
\@writefile{nav}{\headcommand {\beamer@sectionpages {31}{33}}}
\@writefile{nav}{\headcommand {\beamer@documentpages {33}}}
\@writefile{nav}{\headcommand {\def \inserttotalframenumber {19}}}
